…
# Validation

Using the reduced scale of 19 items as it has adequate fit

## Convergent Validity

We assessed the convergent validity of the new DEEP CTN scale, that is
how closely our new measure is related to other established measures of
the same construct. We tested this by looking at the zero order
correlation between our new measure and its subscales and two
established measures: The Connectedness to Nature Scale (CNS - Mayer &
Franz, 2004) and the Environmental Identity Scale revised (EID-R -
Clayton et al., 2021)

    ## # A tibble: 315 × 113
    ##    id           CTN_spirit_1 CTN_spirit_2 CTN_spirit_3 CTN_spirit_7 CTN_spirit_8
    ##    <chr>               <dbl>        <dbl>        <dbl>        <dbl>        <dbl>
    ##  1 6536a9f4336…            3            2            3            5            4
    ##  2 63d00077cc1…            6            6            6            5            4
    ##  3 614f3e97778…            1            1            1            2            1
    ##  4 657eeb0370b…            7            6            7            5            5
    ##  5 611d3a87f74…            3            2            1            2            1
    ##  6 578d6aa570c…            3            4            4            3            4
    ##  7 5ce6fbd9a76…            6            7            5            4            3
    ##  8 5c02adedc77…            4            5            5            6            3
    ##  9 6136dfe2a77…            2            2            3            6            6
    ## 10 5bc934c6942…            4            2            3            1            5
    ## # ℹ 305 more rows
    ## # ℹ 107 more variables: CTN_exp_1 <dbl>, CTN_exp_2 <dbl>, CTN_exp_3 <dbl>,
    ## #   CTN_exp_4 <dbl>, CTN_exp_5 <dbl>, CTN_emo_2 <dbl>, CTN_emo_3 <dbl>,
    ## #   CTN_emo_4 <dbl>, CTN_emo_6 <dbl>, CTN_mind_1 <dbl>, CTN_mind_2 <dbl>,
    ## #   CTN_mind_4 <dbl>, CTN_mind_5 <dbl>, CTN_mind_6 <dbl>, EIDR_1 <dbl>,
    ## #   EIDR_2 <dbl>, EIDR_3 <dbl>, EIDR_4 <dbl>, EIDR_5 <dbl>, EIDR_6 <dbl>,
    ## #   EIDR_7 <dbl>, EIDR_8 <dbl>, EIDR_9 <dbl>, EIDR_10 <dbl>, EIDR_11 <dbl>, …
…
